
<svg height="32" id="svg8" version="1.1" viewBox="0 0 8.4666665 8.4666669" width="32" xmlns="http://www.w3.org/2000/svg">
    <defs id="defs2"/>
    <g id="layer1" transform="translate(0,-288.53332)">
        <path d="M 19.982422 6.9980469 A 1.0001001 1.0001001 0 0 0 19.503906 7.1308594 L 12.609375 11.072266 A 1.0001 1.0001 0 0 0 12.382812 11.201172 L 5.5625 15.101562 A 1.000252 1.000252 0 0 0 5.4648438 15.15625 A 1.0001001 1.0001001 0 0 0 5.3125 15.259766 C 2.8191515 15.99032 0.99609371 18.281976 0.99609375 21.001953 C 0.99609375 24.308662 3.6913301 27.003906 6.9980469 27.003906 L 10.001953 27.003906 A 1.0002331 1.0002331 0 0 0 10.035156 27.001953 L 30 27.001953 A 1.0001001 1.0001001 0 0 0 30.996094 25.998047 L 30.996094 8.0019531 A 1.0001001 1.0001001 0 0 0 29.291016 7.2929688 L 27.585938 8.9980469 L 22.412109 8.9980469 L 20.707031 7.2929688 A 1.0001001 1.0001001 0 0 0 19.982422 6.9980469 z M 19.835938 9.2480469 L 21.289062 10.710938 A 1.0001001 1.0001001 0 0 0 21.998047 10.998047 L 28 10.998047 A 1.0001001 1.0001001 0 0 0 28.708984 10.710938 L 29.003906 10.416016 L 29.003906 25.001953 L 10.001953 25.001953 L 8.0019531 25.001953 L 6.9980469 25.001953 C 4.7647494 25.001953 2.9960938 23.235238 2.9960938 21.001953 C 2.9960938 19.055043 4.3566685 17.469233 6.171875 17.089844 A 1.0003062 1.0003062 0 0 0 6.4746094 17 L 14.003906 17 A 1.000252 1.000252 0 1 0 14.003906 15 L 9.765625 15 L 13.267578 13 L 20 13 A 1.0001 1.0001 0 1 0 20 11 L 16.769531 11 L 19.835938 9.2480469 z " id="path1737" style="color:#000000;font-style:normal;font-variant:normal;font-weight:normal;font-stretch:normal;font-size:medium;line-height:normal;font-family:sans-serif;font-variant-ligatures:normal;font-variant-position:normal;font-variant-caps:normal;font-variant-numeric:normal;font-variant-alternates:normal;font-feature-settings:normal;text-indent:0;text-align:start;text-decoration:none;text-decoration-line:none;text-decoration-style:solid;text-decoration-color:#000000;letter-spacing:normal;word-spacing:normal;text-transform:none;writing-mode:lr-tb;direction:ltr;text-orientation:mixed;dominant-baseline:auto;baseline-shift:baseline;text-anchor:start;white-space:normal;shape-padding:0;clip-rule:nonzero;display:inline;overflow:visible;visibility:visible;opacity:1;isolation:auto;mix-blend-mode:normal;color-interpolation:sRGB;color-interpolation-filters:linearRGB;solid-color:#000000;solid-opacity:1;vector-effect:none;stroke:none;stroke-width:2;stroke-linecap:round;stroke-linejoin:round;stroke-miterlimit:4;stroke-dasharray:none;stroke-dashoffset:0;stroke-opacity:1;color-rendering:auto;image-rendering:auto;shape-rendering:auto;text-rendering:auto;enable-background:accumulate" transform="matrix(0.26458333,0,0,0.26458333,0,288.53332)"/>
    </g>
</svg>